
{"mydata":"hello"}
{"mydata":"hello"}
{"mydata":"hello"}
{"mydata":"hello"}
{"mydata":"hello4"}
{"mydata":"hello5"}
{"mati":"daledale"}
{"mati":"daledaledale"}
{"metadata":{"email":"mariano@gmail.com"},"resource":"https://api.getmati.com/v2/verifications/607684ef0d7425001bff5762","eventName":"verification_started","flowId":"606b42edf4e11f001b2ce859","timestamp":"2021-04-14T06:00:15.215Z"}
{"metadata":{"email":"mariano@gmail.com"},"resource":"https://api.getmati.com/v2/verifications/6076853fac504a001b4ef490","eventName":"verification_started","flowId":"606b42edf4e11f001b2ce859","timestamp":"2021-04-14T06:01:35.326Z"}
{"metadata":{"email":"mariano@gmail.com"},"resource":"https://api.getmati.com/v2/verifications/6076853fac504a001b4ef490","step":{"status":200,"id":"document-reading","data":{"fullName":{"value":"MARIANO ALBERTO MARTINEZ APOLINAR","required":true,"label":"Name"},"address":{"value":"FRACC LAS MISIONES 50230 TOLUCA, MEX","required":false,"label":"Address"},"emissionDate":{"value":"2019-12-31","required":false,"label":"Emission Date","format":"date"},"documentNumber":{"value":"187908509","required":true,"label":"Document Number"},"dateOfBirth":{"value":"1989-05-18","required":true,"label":"Day of Birth","format":"date"},"expirationDate":{"value":"2029-12-31","required":false,"label":"Date of Expiration","format":"date"},"documentType":{"value":"ID","required":false,"label":"Document Type"},"firstName":{"value":"MARIANO ALBERTO","required":false,"label":"First Name"},"issueCountry":{"value":"MEX","required":false,"label":"Issue Country"},"nationality":{"value":"MEX","required":false,"label":"Nationality"},"optional2":{"value":"01 10932","required":false,"label":"Optional 2"},"sex":{"value":"M","required":false,"label":"Sex"},"surname":{"value":"MARTINEZ APOLINAR","required":false,"label":"Surname"},"cde":{"value":"MRAPMR89051815H600","required":false,"label":"Elector Key"},"curp":{"value":"MAAM890518HMCRPR08","required":false,"label":"CURP"},"ne":{"value":"01","required":false,"label":"Emission Number"},"ocrNumber":{"value":"5363081860125","required":false,"label":"OCR Number"}},"error":null},"eventName":"step_completed","flowId":"606b42edf4e11f001b2ce859","timestamp":"2021-04-14T06:03:10.480Z"}
{"metadata":{"email":"mariano@gmail.com"},"resource":"https://api.getmati.com/v2/verifications/6076853fac504a001b4ef490","step":{"status":200,"id":"template-matching","error":null},"eventName":"step_completed","flowId":"606b42edf4e11f001b2ce859","timestamp":"2021-04-14T06:03:10.615Z"}
{"metadata":{"email":"mariano@gmail.com"},"resource":"https://api.getmati.com/v2/verifications/6076853fac504a001b4ef490","step":{"status":200,"id":"watchlists","error":null},"eventName":"step_completed","flowId":"606b42edf4e11f001b2ce859","timestamp":"2021-04-14T06:03:10.881Z"}
{"metadata":{"email":"mariano@gmail.com"},"resource":"https://api.getmati.com/v2/verifications/6076853fac504a001b4ef490","step":{"status":200,"id":"age-check","data":{"age":31,"ageThreshold":18,"underage":false},"error":null},"eventName":"step_completed","flowId":"606b42edf4e11f001b2ce859","timestamp":"2021-04-14T06:03:11.028Z"}
{"metadata":{"email":"mariano@gmail.com"},"resource":"https://api.getmati.com/v2/verifications/6076853fac504a001b4ef490","step":{"status":200,"id":"mexican-ine-validation","error":null,"data":{"documentNumber":"187908509","cde":"MRAPMR89051815H600","ne":"1","ocrNumber":"5363081860125","registrationYear":"2008","emissionYear":"2019"}},"eventName":"step_completed","flowId":"606b42edf4e11f001b2ce859","timestamp":"2021-04-14T06:03:11.152Z"}
{"metadata":{"email":"mariano@gmail.com"},"resource":"https://api.getmati.com/v2/verifications/6076853fac504a001b4ef490","step":{"status":200,"id":"mexican-curp-validation","error":null,"data":{"birthDate":"1989-05-18","curp":"MAAM890518HMCRPR08","fullName":"MARTINEZ APOLINAR MARIANO ALBERTO","gender":"HOMBRE","name":"MARIANO ALBERTO","nationality":"MEXICO","surname":"MARTINEZ","secondSurname":"APOLINAR"}},"eventName":"step_completed","flowId":"606b42edf4e11f001b2ce859","timestamp":"2021-04-14T06:03:12.056Z"}
{"metadata":{"email":"mariano@gmail.com"},"resource":"https://api.getmati.com/v2/verifications/6076853fac504a001b4ef490","step":{"status":200,"id":"mexican-rfc-validation","error":null,"data":{"curp":"MAAM890518HMCRPR08","registeredTaxPayer":true}},"eventName":"step_completed","flowId":"606b42edf4e11f001b2ce859","timestamp":"2021-04-14T06:03:18.586Z"}
{"metadata":{"email":"mariano@gmail.com"},"resource":"https://api.getmati.com/v2/verifications/6076853fac504a001b4ef490","step":{"status":200,"id":"alteration-detection","error":null},"eventName":"step_completed","flowId":"606b42edf4e11f001b2ce859","timestamp":"2021-04-14T06:03:33.416Z"}
{"metadata":{"email":"mariano@gmail.com"},"resource":"https://api.getmati.com/v2/verifications/6076890d46c942001b88811d","eventName":"verification_started","flowId":"606b42edf4e11f001b2ce859","timestamp":"2021-04-14T06:17:49.126Z"}
{"metadata":{"email":"mariano@gmail.com"},"resource":"https://api.getmati.com/v2/verifications/6076890d46c942001b88811d","step":{"status":200,"id":"template-matching","error":null},"eventName":"step_completed","flowId":"606b42edf4e11f001b2ce859","timestamp":"2021-04-14T06:19:17.987Z"}
{"metadata":{"email":"mariano@gmail.com"},"resource":"https://api.getmati.com/v2/verifications/6076890d46c942001b88811d","step":{"status":200,"id":"document-reading","data":{"fullName":{"value":"MARIANO ALBERTO MARTINEZ APOLINAR","required":true,"label":"Name"},"address":{"value":"FRACC LAS MISIONES 50230 TOLDCA, MEX. Stres","required":false,"label":"Address"},"emissionDate":{"value":"2019-12-31","required":false,"label":"Emission Date","format":"date"},"documentNumber":{"value":"187908509","required":true,"label":"Document Number"},"dateOfBirth":{"value":"1989-05-18","required":true,"label":"Day of Birth","format":"date"},"expirationDate":{"value":"2029-12-31","required":false,"label":"Date of Expiration","format":"date"},"documentType":{"value":"ID","required":false,"label":"Document Type"},"firstName":{"value":"MARIANO ALBERTO","required":false,"label":"First Name"},"issueCountry":{"value":"MEX","required":false,"label":"Issue Country"},"nationality":{"value":"MEX","required":false,"label":"Nationality"},"optional2":{"value":"01 10932","required":false,"label":"Optional 2"},"sex":{"value":"M","required":false,"label":"Sex"},"surname":{"value":"MARTINEZ APOLINAR","required":false,"label":"Surname"},"cde":{"value":"MRAPMR89051815H600","required":false,"label":"Elector Key"},"curp":{"value":"MAAM890518HMCRPR08","required":false,"label":"CURP"},"ne":{"value":"01","required":false,"label":"Emission Number"},"ocrNumber":{"value":"5363081860125","required":false,"label":"OCR Number"}},"error":null},"eventName":"step_completed","flowId":"606b42edf4e11f001b2ce859","timestamp":"2021-04-14T06:19:18.032Z"}
{"metadata":{"email":"mariano@gmail.com"},"resource":"https://api.getmati.com/v2/verifications/6076890d46c942001b88811d","step":{"status":200,"id":"age-check","data":{"age":31,"ageThreshold":18,"underage":false},"error":null},"eventName":"step_completed","flowId":"606b42edf4e11f001b2ce859","timestamp":"2021-04-14T06:19:18.250Z"}
{"metadata":{"email":"mariano@gmail.com"},"resource":"https://api.getmati.com/v2/verifications/6076890d46c942001b88811d","step":{"status":200,"id":"watchlists","error":null},"eventName":"step_completed","flowId":"606b42edf4e11f001b2ce859","timestamp":"2021-04-14T06:19:18.248Z"}
{"metadata":{"email":"mariano@gmail.com"},"resource":"https://api.getmati.com/v2/verifications/6076890d46c942001b88811d","step":{"status":200,"id":"mexican-curp-validation","error":null,"data":{"birthDate":"1989-05-18","curp":"MAAM890518HMCRPR08","fullName":"MARTINEZ APOLINAR MARIANO ALBERTO","gender":"HOMBRE","name":"MARIANO ALBERTO","nationality":"MEXICO","surname":"MARTINEZ","secondSurname":"APOLINAR"}},"eventName":"step_completed","flowId":"606b42edf4e11f001b2ce859","timestamp":"2021-04-14T06:19:19.432Z"}
{"metadata":{"email":"mariano@gmail.com"},"resource":"https://api.getmati.com/v2/verifications/6076890d46c942001b88811d","step":{"status":200,"id":"mexican-ine-validation","error":null,"data":{"documentNumber":"187908509","cde":"MRAPMR89051815H600","ne":"1","ocrNumber":"5363081860125","registrationYear":"2008","emissionYear":"2019"}},"eventName":"step_completed","flowId":"606b42edf4e11f001b2ce859","timestamp":"2021-04-14T06:19:48.852Z"}
{"metadata":{"email":"mariano@gmail.com"},"resource":"https://api.getmati.com/v2/verifications/6076890d46c942001b88811d","step":{"status":200,"id":"alteration-detection","error":null},"eventName":"step_completed","flowId":"606b42edf4e11f001b2ce859","timestamp":"2021-04-14T06:19:50.517Z"}
{"metadata":{"email":"mariano@gmail.com"},"resource":"https://api.getmati.com/v2/verifications/6076890d46c942001b88811d","step":{"status":200,"id":"mexican-rfc-validation","error":null,"data":{"curp":"MAAM890518HMCRPR08","registeredTaxPayer":true}},"eventName":"step_completed","flowId":"606b42edf4e11f001b2ce859","timestamp":"2021-04-14T06:19:51.989Z"}
{"mydata":"hello5"}
{"metadata":{"email":"mariano@gmail.com"},"resource":"https://api.getmati.com/v2/verifications/607684ef0d7425001bff5762","eventName":"verification_expired","flowId":"606b42edf4e11f001b2ce859","timestamp":"2021-04-14T06:31:00.077Z"}
{"metadata":{"email":"mariano@gmail.com"},"resource":"https://api.getmati.com/v2/verifications/6076853fac504a001b4ef490","eventName":"verification_expired","flowId":"606b42edf4e11f001b2ce859","timestamp":"2021-04-14T06:32:03.336Z"}
{"metadata":{"email":"mariano@gmail.com"},"resource":"https://api.getmati.com/v2/verifications/60768d1a0d7425001bff7c2e","eventName":"verification_started","flowId":"606b42edf4e11f001b2ce859","timestamp":"2021-04-14T06:35:06.698Z"}
{"metadata":{"email":"mariano@gmail.com"},"resource":"https://api.getmati.com/v2/verifications/60768d73ac504a001b4f19a7","eventName":"verification_started","flowId":"606b42edf4e11f001b2ce859","timestamp":"2021-04-14T06:36:35.205Z"}
{"metadata":{"email":"mariano@gmail.com"},"resource":"https://api.getmati.com/v2/verifications/60768ea10d7425001bff82ce","eventName":"verification_started","flowId":"606b42edf4e11f001b2ce859","timestamp":"2021-04-14T06:41:37.512Z"}
{"metadata":{"email":"mariano@gmail.com"},"resource":"https://api.getmati.com/v2/verifications/6076890d46c942001b88811d","eventName":"verification_expired","flowId":"606b42edf4e11f001b2ce859","timestamp":"2021-04-14T06:48:00.192Z"}
{"metadata":{"email":"mariano@gmail.com"},"resource":"https://api.getmati.com/v2/verifications/60768d1a0d7425001bff7c2e","eventName":"verification_expired","flowId":"606b42edf4e11f001b2ce859","timestamp":"2021-04-14T07:06:00.111Z"}
{"metadata":{"email":"mariano@gmail.com"},"resource":"https://api.getmati.com/v2/verifications/60768d73ac504a001b4f19a7","eventName":"verification_expired","flowId":"606b42edf4e11f001b2ce859","timestamp":"2021-04-14T07:07:00.467Z"}
{"metadata":{"email":"mariano@gmail.com"},"resource":"https://api.getmati.com/v2/verifications/6077596f88c33b001be17d07","eventName":"verification_started","flowId":"606b42edf4e11f001b2ce859","timestamp":"2021-04-14T21:06:55.289Z"}
{"metadata":{"email":"mariano@gmail.com"},"resource":"https://api.getmati.com/v2/verifications/607759e1d9daf6001b0a4870","eventName":"verification_started","flowId":"606b42edf4e11f001b2ce859","timestamp":"2021-04-14T21:08:49.251Z"}
{"metadata":{"email":"mariano@gmail.com"},"resource":"https://api.getmati.com/v2/verifications/6077596f88c33b001be17d07","eventName":"verification_expired","flowId":"606b42edf4e11f001b2ce859","timestamp":"2021-04-14T21:37:00.477Z"}
{"metadata":{"email":"mariano@gmail.com"},"resource":"https://api.getmati.com/v2/verifications/607759e1d9daf6001b0a4870","eventName":"verification_expired","flowId":"606b42edf4e11f001b2ce859","timestamp":"2021-04-14T21:39:00.541Z"}
{"metadata":{"email":"mariano@gmail.com"},"resource":"https://api.getmati.com/v2/verifications/6077c50bd9daf6001b0db172","eventName":"verification_started","flowId":"606b42edf4e11f001b2ce859","timestamp":"2021-04-15T04:46:03.838Z"}
{"metadata":{"email":"mariano@gmail.com"},"resource":"https://api.getmati.com/v2/verifications/6077c510d4bf9c001bdb9a5d","eventName":"verification_started","flowId":"606b42edf4e11f001b2ce859","timestamp":"2021-04-15T04:46:08.059Z"}
{"metadata":{"email":"mariano@gmail.com"},"resource":"https://api.getmati.com/v2/verifications/6077c50bd9daf6001b0db172","eventName":"verification_expired","flowId":"606b42edf4e11f001b2ce859","timestamp":"2021-04-15T05:17:00.124Z"}
{"metadata":{"email":"mariano@gmail.com"},"resource":"https://api.getmati.com/v2/verifications/6077c510d4bf9c001bdb9a5d","eventName":"verification_expired","flowId":"606b42edf4e11f001b2ce859","timestamp":"2021-04-15T05:17:00.279Z"}
{"metadata":{"email":"mariano@gmail.com"},"resource":"https://api.getmati.com/v2/verifications/6077cdf5d9daf6001b0de06e","eventName":"verification_started","flowId":"606b42edf4e11f001b2ce859","timestamp":"2021-04-15T05:24:05.629Z"}
{"metadata":{"email":"mariano@gmail.com"},"resource":"https://api.getmati.com/v2/verifications/6077cdf5d9daf6001b0de06e","eventName":"verification_expired","flowId":"606b42edf4e11f001b2ce859","timestamp":"2021-04-15T05:55:00.152Z"}
{"metadata":{"email":"mariano@gmail.com"},"resource":"https://api.getmati.com/v2/verifications/607856e8cf93dc001be156ec","eventName":"verification_started","flowId":"606b42edf4e11f001b2ce859","timestamp":"2021-04-15T15:08:24.677Z"}
{"metadata":{"email":"mariano@gmail.com"},"resource":"https://api.getmati.com/v2/verifications/607856e8cf93dc001be156ec","eventName":"verification_expired","flowId":"606b42edf4e11f001b2ce859","timestamp":"2021-04-15T15:39:00.359Z"}
15abr2021




{"mydata":"hello15abr2021"}
{"metadata":{"email":"mariano@gmail.com"},"resource":"https://api.getmati.com/v2/verifications/60739f2a84c023001be571a1","deviceFingerprint":{"ua":"omni/1 CFNetwork/1220.1 Darwin/20.3.0","os":{"name":"iOS"},"ip":"177.247.106.33","app":{"platform":"iOS","version":"3.0.3"}},"identityStatus":"verified","details":{"age":{"data":31},"isDocumentExpired":{"data":{"national-id":false}}},"matiDashboardUrl":"https://dashboard.getmati.com/identities/60739f2a84c023001be5719f","status":"reviewNeeded","eventName":"verification_updated","flowId":"606b42edf4e11f001b2ce859","timestamp":"2021-04-15T18:16:51.078Z"}
{"metadata":{"email":"mariano@gmail.com"},"resource":"https://api.getmati.com/v2/verifications/60790b74cf93dc001be8f459","eventName":"verification_started","flowId":"606b42edf4e11f001b2ce859","timestamp":"2021-04-16T03:58:44.354Z"}
{"metadata":{"email":"mariano@gmail.com"},"resource":"https://api.getmati.com/v2/verifications/60790b74cf93dc001be8f459","eventName":"verification_expired","flowId":"606b42edf4e11f001b2ce859","timestamp":"2021-04-16T04:29:00.202Z"}
{"metadata":{"email":"mariano@gmail.com"},"resource":"https://api.getmati.com/v2/verifications/607d16d5c8552d001b32fa41","eventName":"verification_started","flowId":"606b42edf4e11f001b2ce859","timestamp":"2021-04-19T05:36:21.060Z"}


{"metadata":{"email":"mariano@gmail.com"},"resource":"https://api.getmati.com/v2/verifications/607d173e9159d8001b767f00","eventName":"verification_started","flowId":"606b42edf4e11f001b2ce859","timestamp":"2021-04-19T05:38:06.331Z"}
{"metadata":{"email":"mariano@gmail.com"},"resource":"https://api.getmati.com/v2/verifications/607d1773ba3004001be33c2f","eventName":"verification_started","flowId":"606b42edf4e11f001b2ce859","timestamp":"2021-04-19T05:38:59.063Z"}
{"metadata":{"email":"mariano@gmail.com"},"resource":"https://api.getmati.com/v2/verifications/607d1799c8552d001b32fd4b","eventName":"verification_started","flowId":"606b42edf4e11f001b2ce859","timestamp":"2021-04-19T05:39:37.435Z"}
{"metadata":{"email":"mariano@gmail.com"},"resource":"https://api.getmati.com/v2/verifications/607d17d2ba3004001be33dce","eventName":"verification_started","flowId":"606b42edf4e11f001b2ce859","timestamp":"2021-04-19T05:40:34.777Z"}
{"metadata":{"email":"mariano@gmail.com"},"resource":"https://api.getmati.com/v2/verifications/607d1819ba3004001be33ec9","eventName":"verification_started","flowId":"606b42edf4e11f001b2ce859","timestamp":"2021-04-19T05:41:45.195Z"}
{"metadata":{"email":"mariano@gmail.com"},"resource":"https://api.getmati.com/v2/verifications/607d18719159d8001b7683b7","eventName":"verification_started","flowId":"606b42edf4e11f001b2ce859","timestamp":"2021-04-19T05:43:13.161Z"}
{"metadata":{"email":"mariano@gmail.com"},"resource":"https://api.getmati.com/v2/verifications/607d1884ba3004001be34090","eventName":"verification_started","flowId":"606b42edf4e11f001b2ce859","timestamp":"2021-04-19T05:43:33.607Z"}
{"metadata":{"email":"mariano@gmail.com"},"resource":"https://api.getmati.com/v2/verifications/607d16d5c8552d001b32fa41","eventName":"verification_expired","flowId":"606b42edf4e11f001b2ce859","timestamp":"2021-04-19T06:07:00.621Z"}
{"metadata":{"email":"mariano@gmail.com"},"resource":"https://api.getmati.com/v2/verifications/607d173e9159d8001b767f00","eventName":"verification_expired","flowId":"606b42edf4e11f001b2ce859","timestamp":"2021-04-19T06:09:00.129Z"}
{"metadata":{"email":"mariano@gmail.com"},"resource":"https://api.getmati.com/v2/verifications/607d1773ba3004001be33c2f","eventName":"verification_expired","flowId":"606b42edf4e11f001b2ce859","timestamp":"2021-04-19T06:09:00.315Z"}
{"metadata":{"email":"mariano@gmail.com"},"resource":"https://api.getmati.com/v2/verifications/607d1799c8552d001b32fd4b","eventName":"verification_expired","flowId":"606b42edf4e11f001b2ce859","timestamp":"2021-04-19T06:10:00.192Z"}
{"metadata":{"email":"mariano@gmail.com"},"resource":"https://api.getmati.com/v2/verifications/607d17d2ba3004001be33dce","eventName":"verification_expired","flowId":"606b42edf4e11f001b2ce859","timestamp":"2021-04-19T06:11:00.174Z"}
{"metadata":{"email":"mariano@gmail.com"},"resource":"https://api.getmati.com/v2/verifications/607d1819ba3004001be33ec9","eventName":"verification_expired","flowId":"606b42edf4e11f001b2ce859","timestamp":"2021-04-19T06:12:00.218Z"}
{"metadata":{"email":"mariano@gmail.com"},"resource":"https://api.getmati.com/v2/verifications/607d18719159d8001b7683b7","eventName":"verification_expired","flowId":"606b42edf4e11f001b2ce859","timestamp":"2021-04-19T06:14:00.120Z"}
{"metadata":{"email":"mariano@gmail.com"},"resource":"https://api.getmati.com/v2/verifications/607d1884ba3004001be34090","eventName":"verification_expired","flowId":"606b42edf4e11f001b2ce859","timestamp":"2021-04-19T06:14:00.169Z"}
{"metadata":{"email":"mariano@gmail.com"},"resource":"https://api.getmati.com/v2/verifications/607f42620b696f001c61ac1f","eventName":"verification_started","flowId":"606b42edf4e11f001b2ce859","timestamp":"2021-04-20T21:06:42.334Z"}
{"metadata":{"email":"mariano@gmail.com"},"resource":"https://api.getmati.com/v2/verifications/607f443e0b696f001c61c519","eventName":"verification_started","flowId":"606b42edf4e11f001b2ce859","timestamp":"2021-04-20T21:14:38.268Z"}
{"metadata":{"email":"mariano@gmail.com"},"resource":"https://api.getmati.com/v2/verifications/607f45f90b696f001c61db15","eventName":"verification_started","flowId":"606b42edf4e11f001b2ce859","timestamp":"2021-04-20T21:22:01.886Z"}
{"metadata":{"email":"mariano@gmail.com"},"resource":"https://api.getmati.com/v2/verifications/607f42620b696f001c61ac1f","eventName":"verification_expired","flowId":"606b42edf4e11f001b2ce859","timestamp":"2021-04-20T21:37:01.674Z"}
{"metadata":{"email":"mariano@gmail.com"},"resource":"https://api.getmati.com/v2/verifications/607f443e0b696f001c61c519","eventName":"verification_expired","flowId":"606b42edf4e11f001b2ce859","timestamp":"2021-04-20T21:45:02.199Z"}
{"metadata":{"email":"mariano@gmail.com"},"resource":"https://api.getmati.com/v2/verifications/607f45f90b696f001c61db15","eventName":"verification_expired","flowId":"606b42edf4e11f001b2ce859","timestamp":"2021-04-20T21:53:00.390Z"}

flujo END

{"metadata":{"email":"mariano@gmail.com"},"resource":"https://api.getmati.com/v2/verifications/607facd21dbb8d001bf68596","eventName":"verification_started","flowId":"606b42edf4e11f001b2ce859","timestamp":"2021-04-21T04:40:52.274Z"}
{"metadata":{"email":"mariano@gmail.com"},"resource":"https://api.getmati.com/v2/verifications/607facd21dbb8d001bf68596","eventName":"verification_inputs_completed","flowId":"606b42edf4e11f001b2ce859","timestamp":"2021-04-21T04:44:18.244Z"}
{"metadata":{"email":"mariano@gmail.com"},"resource":"https://api.getmati.com/v2/verifications/607facd21dbb8d001bf68596","step":{"status":200,"id":"template-matching","error":null},"eventName":"step_completed","flowId":"606b42edf4e11f001b2ce859","timestamp":"2021-04-21T04:44:40.466Z"}
{"metadata":{"email":"mariano@gmail.com"},"resource":"https://api.getmati.com/v2/verifications/607facd21dbb8d001bf68596","step":{"status":200,"id":"watchlists","error":null},"eventName":"step_completed","flowId":"606b42edf4e11f001b2ce859","timestamp":"2021-04-21T04:45:38.965Z"}
{"metadata":{"email":"mariano@gmail.com"},"resource":"https://api.getmati.com/v2/verifications/607facd21dbb8d001bf68596","step":{"status":200,"id":"document-reading","data":{"fullName":{"required":true,"label":"Name","value":"ABRAHAM SIBAJA CENTENO"},"documentNumber":{"required":true,"label":"Document Number","value":"6 0382 0545"},"dateOfBirth":{"required":true,"label":"Day of Birth","format":"date","value":"1989-03-21"},"expirationDate":{"label":"Date of Expiration","format":"date","value":"2024-06-19"}},"error":null},"eventName":"step_completed","flowId":"606b42edf4e11f001b2ce859","timestamp":"2021-04-21T04:45:40.293Z"}
{"metadata":{"email":"mariano@gmail.com"},"resource":"https://api.getmati.com/v2/verifications/607facd21dbb8d001bf68596","step":{"status":200,"id":"age-check","data":{"age":32,"ageThreshold":18,"underage":false},"error":null},"eventName":"step_completed","flowId":"606b42edf4e11f001b2ce859","timestamp":"2021-04-21T04:45:38.933Z"}
{"metadata":{"email":"mariano@gmail.com"},"resource":"https://api.getmati.com/v2/verifications/607facd21dbb8d001bf68596","step":{"status":200,"id":"costa-rican-tse-validation","error":null,"data":{"documentNumber":"603820545","firstName":"ABRAHAM","lastName":"SIBAJA ","secondSurname":"CENTENO","deceased":false,"dateOfBirth":"1989-03-21","nationality":"COSTARRICENSE"}},"eventName":"step_completed","flowId":"606b42edf4e11f001b2ce859","timestamp":"2021-04-21T04:45:40.402Z"}
{"metadata":{"email":"mariano@gmail.com"},"resource":"https://api.getmati.com/v2/verifications/607facd21dbb8d001bf68596","step":{"status":200,"id":"alteration-detection","error":null},"eventName":"step_completed","flowId":"606b42edf4e11f001b2ce859","timestamp":"2021-04-21T04:46:01.401Z"}
{"metadata":{"email":"mariano@gmail.com"},"resource":"https://api.getmati.com/v2/verifications/607facd21dbb8d001bf68596","deviceFingerprint":{"ua":"omni/1 CFNetwork/1220.1 Darwin/20.3.0","os":{"name":"iOS"},"ip":"177.247.106.33","app":{"platform":"iOS","version":"3.0.3"}},"identityStatus":"verified","details":{"age":{"data":32},"isDocumentExpired":{"data":{"national-id":false}}},"matiDashboardUrl":"https://dashboard.getmati.com/identities/607facd21dbb8d001bf68594","status":"verified","eventName":"verification_completed","flowId":"606b42edf4e11f001b2ce859","timestamp":"2021-04-21T04:46:01.420Z"}

Flujo END

{"metadata":{"email":"mariano@gmail.com"},"resource":"https://api.getmati.com/v2/verifications/607faffa1dbb8d001bf69bd9","eventName":"verification_started","flowId":"606b42edf4e11f001b2ce859","timestamp":"2021-04-21T04:54:18.176Z"}
{"metadata":{"email":"mariano@gmail.com"},"resource":"https://api.getmati.com/v2/verifications/607faffa1dbb8d001bf69bd9","eventName":"verification_inputs_completed","flowId":"606b42edf4e11f001b2ce859","timestamp":"2021-04-21T04:55:00.233Z"}
{"metadata":{"email":"mariano@gmail.com"},"resource":"https://api.getmati.com/v2/verifications/607faffa1dbb8d001bf69bd9","step":{"status":200,"id":"template-matching","error":null},"eventName":"step_completed","flowId":"606b42edf4e11f001b2ce859","timestamp":"2021-04-21T04:55:14.325Z"}
{"metadata":{"email":"mariano@gmail.com"},"resource":"https://api.getmati.com/v2/verifications/607faffa1dbb8d001bf69bd9","step":{"status":200,"id":"document-reading","data":{"fullName":{"required":true,"label":"Name","value":"ABRAHAM SIBAJA CENTENO"},"documentNumber":{"required":true,"label":"Document Number","value":"6 0382 0545"},"dateOfBirth":{"required":true,"label":"Day of Birth","format":"date","value":"1989-03-21"},"expirationDate":{"label":"Date of Expiration","format":"date","value":"2024-06-19"}},"error":null},"eventName":"step_completed","flowId":"606b42edf4e11f001b2ce859","timestamp":"2021-04-21T04:56:14.757Z"}
{"metadata":{"email":"mariano@gmail.com"},"resource":"https://api.getmati.com/v2/verifications/607faffa1dbb8d001bf69bd9","step":{"status":200,"id":"age-check","data":{"age":32,"ageThreshold":18,"underage":false},"error":null},"eventName":"step_completed","flowId":"606b42edf4e11f001b2ce859","timestamp":"2021-04-21T04:56:14.809Z"}
{"metadata":{"email":"mariano@gmail.com"},"resource":"https://api.getmati.com/v2/verifications/607faffa1dbb8d001bf69bd9","step":{"status":200,"id":"watchlists","error":null},"eventName":"step_completed","flowId":"606b42edf4e11f001b2ce859","timestamp":"2021-04-21T04:56:17.032Z"}
{"metadata":{"email":"mariano@gmail.com"},"resource":"https://api.getmati.com/v2/verifications/607faffa1dbb8d001bf69bd9","step":{"status":200,"id":"costa-rican-tse-validation","error":null,"data":{"documentNumber":"603820545","firstName":"ABRAHAM","lastName":"SIBAJA ","secondSurname":"CENTENO","deceased":false,"dateOfBirth":"1989-03-21","nationality":"COSTARRICENSE"}},"eventName":"step_completed","flowId":"606b42edf4e11f001b2ce859","timestamp":"2021-04-21T04:56:17.223Z"}
{"metadata":{"email":"mariano@gmail.com"},"resource":"https://api.getmati.com/v2/verifications/607faffa1dbb8d001bf69bd9","deviceFingerprint":{"ua":"omni/1 CFNetwork/1220.1 Darwin/20.3.0","os":{"name":"iOS"},"ip":"177.247.106.33","app":{"platform":"iOS","version":"3.0.3"}},"identityStatus":"verified","details":{"age":{"data":32},"isDocumentExpired":{"data":{"national-id":false}}},"matiDashboardUrl":"https://dashboard.getmati.com/identities/607faffa1dbb8d001bf69bd7","status":"verified","eventName":"verification_completed","flowId":"606b42edf4e11f001b2ce859","timestamp":"2021-04-21T04:57:03.789Z"}
{"metadata":{"email":"mariano@gmail.com"},"resource":"https://api.getmati.com/v2/verifications/607faffa1dbb8d001bf69bd9","step":{"status":200,"id":"alteration-detection","error":null},"eventName":"step_completed","flowId":"606b42edf4e11f001b2ce859","timestamp":"2021-04-21T04:57:03.704Z"}

flujo END

{"metadata":{"email":"mariano@gmail.com"},"resource":"https://api.getmati.com/v2/verifications/607fb1f50b696f001c65a19e","eventName":"verification_started","flowId":"606b42edf4e11f001b2ce859","timestamp":"2021-04-21T05:02:45.475Z"}
{"metadata":{"email":"mariano@gmail.com"},"resource":"https://api.getmati.com/v2/verifications/607fb1f50b696f001c65a19e","eventName":"verification_inputs_completed","flowId":"606b42edf4e11f001b2ce859","timestamp":"2021-04-21T05:03:17.156Z"}
{"metadata":{"email":"mariano@gmail.com"},"resource":"https://api.getmati.com/v2/verifications/607fb1f50b696f001c65a19e","step":{"status":200,"id":"document-reading","data":{"fullName":{"value":"ALKINSON L GONZALEZ HERNANDEZ","required":true,"label":"Name"},"documentNumber":{"value":"155818148","required":true,"label":"Document Number"},"dateOfBirth":{"value":"1991-02-24","required":true,"label":"Day of Birth","format":"date"},"expirationDate":{"value":"2022-05-24","required":false,"label":"Date of Expiration","format":"date"},"documentType":{"value":"C","required":false,"label":"Document Type"},"firstName":{"value":"ALKINSON L","required":false,"label":"First Name"},"issueCountry":{"value":"CRI","required":false,"label":"Issue Country"},"nationality":{"value":"NIC","required":false,"label":"Nationality"},"optional1":{"value":"010","required":false,"label":"Optional 1"},"sex":{"value":"M","required":false,"label":"Sex"},"surname":{"value":"GONZALEZ HERNANDEZ","required":false,"label":"Surname"}},"error":null},"eventName":"step_completed","flowId":"606b42edf4e11f001b2ce859","timestamp":"2021-04-21T05:03:17.358Z"}
{"metadata":{"email":"mariano@gmail.com"},"resource":"https://api.getmati.com/v2/verifications/607fb1f50b696f001c65a19e","step":{"status":200,"id":"age-check","data":{"age":30,"ageThreshold":18,"underage":false},"error":null},"eventName":"step_completed","flowId":"606b42edf4e11f001b2ce859","timestamp":"2021-04-21T05:03:17.541Z"}
{"metadata":{"email":"mariano@gmail.com"},"resource":"https://api.getmati.com/v2/verifications/607fb1f50b696f001c65a19e","step":{"status":200,"id":"watchlists","error":null},"eventName":"step_completed","flowId":"606b42edf4e11f001b2ce859","timestamp":"2021-04-21T05:03:17.703Z"}
{"metadata":{"email":"mariano@gmail.com"},"resource":"https://api.getmati.com/v2/verifications/607fb1f50b696f001c65a19e","step":{"status":200,"id":"costa-rican-tse-validation","error":{"type":"StepError","code":"costaRicanTse.notFound","message":"No results were found in the TSE database"}},"eventName":"step_completed","flowId":"606b42edf4e11f001b2ce859","timestamp":"2021-04-21T05:03:18.474Z"}
{"metadata":{"email":"mariano@gmail.com"},"resource":"https://api.getmati.com/v2/verifications/607fb1f50b696f001c65a19e","step":{"status":200,"id":"alteration-detection","error":null},"eventName":"step_completed","flowId":"606b42edf4e11f001b2ce859","timestamp":"2021-04-21T05:03:58.588Z"}
{"metadata":{"email":"mariano@gmail.com"},"resource":"https://api.getmati.com/v2/verifications/607fb1f50b696f001c65a19e","step":{"status":200,"id":"template-matching","error":null},"eventName":"step_completed","flowId":"606b42edf4e11f001b2ce859","timestamp":"2021-04-21T05:06:59.189Z"}
{"metadata":{"email":"mariano@gmail.com"},"resource":"https://api.getmati.com/v2/verifications/607fb1f50b696f001c65a19e","deviceFingerprint":{"ua":"omni/1 CFNetwork/1220.1 Darwin/20.3.0","os":{"name":"iOS"},"ip":"177.247.106.33","app":{"platform":"iOS","version":"3.0.3"}},"identityStatus":"reviewNeeded","details":{"age":{"data":30},"isDocumentExpired":{"data":{"national-id":false}}},"matiDashboardUrl":"https://dashboard.getmati.com/identities/607fb1f50b696f001c65a19c","status":"reviewNeeded","eventName":"verification_completed","flowId":"606b42edf4e11f001b2ce859","timestamp":"2021-04-21T05:06:59.347Z"}
{"metadata":{"email":"mariano@gmail.com"},"resource":"https://api.getmati.com/v2/verifications/607fafd40b696f001c6594e8","eventName":"verification_expired","flowId":"606b42edf4e11f001b2ce859","timestamp":"2021-04-21T05:24:01.030Z"}
{"resource":"https://api.getmati.com/v2/verifications/607fc7ef1dbb8d001bf714ca","eventName":"verification_started","flowId":"606b42edf4e11f001b2ce859","timestamp":"2021-04-21T06:36:31.356Z"}
{"resource":"https://api.getmati.com/v2/verifications/607fc7ff7ce859001bd55c59","eventName":"verification_started","flowId":"606b42edf4e11f001b2ce859","timestamp":"2021-04-21T06:36:47.312Z"}
{"resource":"https://api.getmati.com/v2/verifications/607fca107ce859001bd564a0","eventName":"verification_started","flowId":"606b42edf4e11f001b2ce859","timestamp":"2021-04-21T06:45:37.003Z"}
{"resource":"https://api.getmati.com/v2/verifications/607fcacf0b696f001c6619e8","eventName":"verification_started","flowId":"606b42edf4e11f001b2ce859","timestamp":"2021-04-21T06:48:47.816Z"}
{"resource":"https://api.getmati.com/v2/verifications/607fcae47ce859001bd56824","eventName":"verification_started","flowId":"606b42edf4e11f001b2ce859","timestamp":"2021-04-21T06:49:09.063Z"}
{"resource":"https://api.getmati.com/v2/verifications/607fc7ef1dbb8d001bf714ca","eventName":"verification_expired","flowId":"606b42edf4e11f001b2ce859","timestamp":"2021-04-21T07:07:00.164Z"}
{"resource":"https://api.getmati.com/v2/verifications/607fc7ff7ce859001bd55c59","eventName":"verification_expired","flowId":"606b42edf4e11f001b2ce859","timestamp":"2021-04-21T07:07:00.300Z"}
{"resource":"https://api.getmati.com/v2/verifications/607fca107ce859001bd564a0","eventName":"verification_expired","flowId":"606b42edf4e11f001b2ce859","timestamp":"2021-04-21T07:16:00.168Z"}
{"resource":"https://api.getmati.com/v2/verifications/608040f9352b9b001bb8fb47","eventName":"verification_started","flowId":"606b42edf4e11f001b2ce859","timestamp":"2021-04-21T15:12:57.130Z"}
{"resource":"https://api.getmati.com/v2/verifications/608040f9352b9b001bb8fb47","step":{"status":200,"id":"age-check","data":{"age":30,"ageThreshold":18,"underage":false},"error":null},"eventName":"step_completed","flowId":"606b42edf4e11f001b2ce859","timestamp":"2021-04-21T15:13:39.909Z"}
{"resource":"https://api.getmati.com/v2/verifications/608040f9352b9b001bb8fb47","step":{"status":200,"id":"document-reading","data":{"fullName":{"value":"ALKINSON L GONZALEZ HERNANDEZ","required":true,"label":"Name"},"documentNumber":{"value":"155818148","required":true,"label":"Document Number"},"dateOfBirth":{"value":"1991-02-24","required":true,"label":"Day of Birth","format":"date"},"expirationDate":{"value":"2022-05-24","required":false,"label":"Date of Expiration","format":"date"},"documentType":{"value":"C","required":false,"label":"Document Type"},"firstName":{"value":"ALKINSON L","required":false,"label":"First Name"},"issueCountry":{"value":"CRI","required":false,"label":"Issue Country"},"nationality":{"value":"NIC","required":false,"label":"Nationality"},"optional1":{"value":"010","required":false,"label":"Optional 1"},"sex":{"value":"M","required":false,"label":"Sex"},"surname":{"value":"GONZALEZ HERNANDEZ","required":false,"label":"Surname"}},"error":null},"eventName":"step_completed","flowId":"606b42edf4e11f001b2ce859","timestamp":"2021-04-21T15:13:39.864Z"}
{"resource":"https://api.getmati.com/v2/verifications/608040f9352b9b001bb8fb47","step":{"status":200,"id":"watchlists","error":null},"eventName":"step_completed","flowId":"606b42edf4e11f001b2ce859","timestamp":"2021-04-21T15:13:39.961Z"}
{"resource":"https://api.getmati.com/v2/verifications/608040f9352b9b001bb8fb47","step":{"status":200,"id":"costa-rican-tse-validation","error":{"type":"StepError","code":"costaRicanTse.notFound","message":"No results were found in the TSE database"}},"eventName":"step_completed","flowId":"606b42edf4e11f001b2ce859","timestamp":"2021-04-21T15:13:40.867Z"}
{"resource":"https://api.getmati.com/v2/verifications/608040f9352b9b001bb8fb47","eventName":"verification_inputs_completed","flowId":"606b42edf4e11f001b2ce859","timestamp":"2021-04-21T15:14:49.536Z"}
{"resource":"https://api.getmati.com/v2/verifications/608040f9352b9b001bb8fb47","step":{"status":200,"id":"liveness","data":{"videoUrl":"http://media-server/media/video/c21330e3-3e97-44c0-943b-1c654f3c31ea.qt","spriteUrl":"http://media-server/media/selfie/ec575d9e-4593-437d-b2f5-687c45f458c0.jpeg","selfieUrl":{"media":"6080416923be75001bf6cc13","isUrl":true}},"error":null},"eventName":"step_completed","flowId":"606b42edf4e11f001b2ce859","timestamp":"2021-04-21T15:14:49.629Z"}
{"resource":"https://api.getmati.com/v2/verifications/608040f9352b9b001bb8fb47","step":{"status":200,"id":"facematch","data":{"score":30.01537564185908},"error":{"type":"LegacyError","code":"legacy.error","message":"The face did not match the document"}},"eventName":"step_completed","flowId":"606b42edf4e11f001b2ce859","timestamp":"2021-04-21T15:14:50.988Z"}
{"resource":"https://api.getmati.com/v2/verifications/608040f9352b9b001bb8fb47","step":{"status":200,"id":"alteration-detection","error":null},"eventName":"step_completed","flowId":"606b42edf4e11f001b2ce859","timestamp":"2021-04-21T15:14:51.356Z"}
{"resource":"https://api.getmati.com/v2/verifications/608040f9352b9b001bb8fb47","deviceFingerprint":{"ua":"Mozilla/5.0 (iPhone; CPU iPhone OS 14_4_2 like Mac OS X) AppleWebKit/605.1.15 (KHTML, like Gecko) Version/14.0.3 Mobile/15E148 Safari/604.1","browser":{"name":"Mobile Safari","version":"14.0.3","major":"14"},"engine":{"name":"WebKit","version":"605.1.15"},"os":{"name":"iOS","version":"14.4.2"},"device":{"vendor":"Apple","model":"iPhone","type":"mobile"},"ip":"177.247.106.33","app":{"platform":"web_mobile","version":"1.2.2"}},"identityStatus":"reviewNeeded","details":{"age":{"data":30},"isDocumentExpired":{"data":{"national-id":false}}},"matiDashboardUrl":"https://dashboard.getmati.com/identities/608040f9352b9b001bb8fb43","status":"reviewNeeded","eventName":"verification_completed","flowId":"606b42edf4e11f001b2ce859","timestamp":"2021-04-21T15:16:20.312Z"}
{"resource":"https://api.getmati.com/v2/verifications/608040f9352b9b001bb8fb47","step":{"status":200,"id":"template-matching","error":null},"eventName":"step_completed","flowId":"606b42edf4e11f001b2ce859","timestamp":"2021-04-21T15:16:20.418Z"}
{"resource":"https://api.getmati.com/v2/verifications/60804910352b9b001bb96cb9","eventName":"verification_expired","flowId":"606b42edf4e11f001b2ce859","timestamp":"2021-04-21T16:18:01.068Z"}


{"resource":"https://api.getmati.com/v2/verifications/608056e94a9806001b3d389f","eventName":"verification_started","flowId":"606b42edf4e11f001b2ce859","timestamp":"2021-04-21T16:46:33.785Z"}
{"resource":"https://api.getmati.com/v2/verifications/608056e94a9806001b3d389f","eventName":"verification_expired","flowId":"606b42edf4e11f001b2ce859","timestamp":"2021-04-21T17:17:00.772Z"}
{"resource":"https://api.getmati.com/v2/verifications/608056e94a9806001b3d389f","step":{"status":200,"id":"template-matching","error":{"type":"StepError","code":"templateMatching.noMatchFound","message":"Document did not match any valid template"}},"eventName":"step_completed","flowId":"606b42edf4e11f001b2ce859","timestamp":"2021-04-21T17:42:51.893Z"}
{"resource":"https://api.getmati.com/v2/verifications/608056e94a9806001b3d389f","eventName":"verification_inputs_completed","flowId":"606b42edf4e11f001b2ce859","timestamp":"2021-04-21T17:43:08.419Z"}
{"resource":"https://api.getmati.com/v2/verifications/608056e94a9806001b3d389f","step":{"status":200,"id":"liveness","data":{"videoUrl":"http://media-server/media/video/1798e71e-9c30-41a9-b4f5-63715e450534.webm","spriteUrl":"http://media-server/media/selfie/533008b0-4223-4a1a-834c-7de30c1d8ce8.jpeg","selfieUrl":{"media":"6080642c2481c4001b6436e0","isUrl":true}},"error":null},"eventName":"step_completed","flowId":"606b42edf4e11f001b2ce859","timestamp":"2021-04-21T17:43:08.466Z"}
{"resource":"https://api.getmati.com/v2/verifications/608056e94a9806001b3d389f","step":{"status":200,"id":"facematch","data":{"score":100},"error":null},"eventName":"step_completed","flowId":"606b42edf4e11f001b2ce859","timestamp":"2021-04-21T17:43:09.400Z"}
{"resource":"https://api.getmati.com/v2/verifications/608056e94a9806001b3d389f","step":{"status":200,"id":"document-reading","data":{"fullName":{"value":"GERMAN MARTINEZ GARCIA","required":true,"label":"Name"},"documentNumber":{"value":"200379678","required":true,"label":"Document Number"},"dateOfBirth":{"value":"1991-01-02","required":true,"label":"Day of Birth","format":"date"},"expirationDate":{"value":"2029-12-31","required":false,"label":"Date of Expiration","format":"date"},"documentType":{"value":"ID","required":false,"label":"Document Type"},"firstName":{"value":"GERMAN","required":false,"label":"First Name"},"issueCountry":{"value":"MEX","required":false,"label":"Issue Country"},"nationality":{"value":"MEX","required":false,"label":"Nationality"},"optional1":{"value":"0491084201193","required":false,"label":"Optional 1"},"optional2":{"value":"01 671494","required":false,"label":"Optional 2"},"sex":{"value":"h","required":false,"label":"Sex"},"surname":{"value":"MARTINEZ GARCIA","required":false,"label":"Surname"}},"error":null},"eventName":"step_completed","flowId":"606b42edf4e11f001b2ce859","timestamp":"2021-04-21T17:43:32.335Z"}
{"resource":"https://api.getmati.com/v2/verifications/608056e94a9806001b3d389f","step":{"status":200,"id":"age-check","data":{"age":30,"ageThreshold":18,"underage":false},"error":null},"eventName":"step_completed","flowId":"606b42edf4e11f001b2ce859","timestamp":"2021-04-21T17:43:32.487Z"}
{"resource":"https://api.getmati.com/v2/verifications/608056e94a9806001b3d389f","step":{"status":200,"id":"watchlists","error":null},"eventName":"step_completed","flowId":"606b42edf4e11f001b2ce859","timestamp":"2021-04-21T17:43:32.554Z"}
{"resource":"https://api.getmati.com/v2/verifications/608056e94a9806001b3d389f","step":{"status":200,"id":"costa-rican-tse-validation","error":{"type":"StepError","code":"costaRicanTse.notFound","message":"No results were found in the TSE database"}},"eventName":"step_completed","flowId":"606b42edf4e11f001b2ce859","timestamp":"2021-04-21T17:43:33.614Z"}
{"resource":"https://api.getmati.com/v2/verifications/608056e94a9806001b3d389f","deviceFingerprint":{"ua":"Mozilla/5.0 (Macintosh; Intel Mac OS X 11_2_3) AppleWebKit/537.36 (KHTML, like Gecko) Chrome/89.0.4389.128 Safari/537.36","browser":{"name":"Chrome","version":"89.0.4389.128","major":"89"},"engine":{"name":"Blink","version":"89.0.4389.128"},"os":{"name":"Mac OS","version":"11.2.3"},"ip":"187.252.192.35","app":{"platform":"web_desktop","version":"1.2.2"}},"identityStatus":"reviewNeeded","details":{"age":{"data":30},"isDocumentExpired":{"data":{"national-id":false}}},"matiDashboardUrl":"https://dashboard.getmati.com/identities/608056e94a9806001b3d389d","status":"reviewNeeded","eventName":"verification_completed","flowId":"606b42edf4e11f001b2ce859","timestamp":"2021-04-21T17:44:20.978Z"}
{"resource":"https://api.getmati.com/v2/verifications/608056e94a9806001b3d389f","step":{"status":200,"id":"alteration-detection","error":null},"eventName":"step_completed","flowId":"606b42edf4e11f001b2ce859","timestamp":"2021-04-21T17:44:21.065Z"}


{"resource":"https://api.getmati.com/v2/verifications/608066ea4a9806001b3e1840","eventName":"verification_started","flowId":"606b42edf4e11f001b2ce859","timestamp":"2021-04-21T17:54:50.527Z"}
{"resource":"https://api.getmati.com/v2/verifications/608066ea4a9806001b3e1840","eventName":"verification_expired","flowId":"606b42edf4e11f001b2ce859","timestamp":"2021-04-21T18:25:01.626Z"}

{"resource":"https://api.getmati.com/v2/verifications/6080758e352b9b001bbbfefa","eventName":"verification_started","flowId":"606b42edf4e11f001b2ce859","timestamp":"2021-04-21T18:57:18.818Z"}
{"resource":"https://api.getmati.com/v2/verifications/6080758e352b9b001bbbfefa","step":{"status":200,"id":"template-matching","error":null},"eventName":"step_completed","flowId":"606b42edf4e11f001b2ce859","timestamp":"2021-04-21T18:58:38.457Z"}
{"resource":"https://api.getmati.com/v2/verifications/6080758e352b9b001bbbfefa","step":{"status":200,"id":"age-check","data":{"age":25,"ageThreshold":18,"underage":false},"error":null},"eventName":"step_completed","flowId":"606b42edf4e11f001b2ce859","timestamp":"2021-04-21T18:59:29.771Z"}
{"resource":"https://api.getmati.com/v2/verifications/6080758e352b9b001bbbfefa","step":{"status":200,"id":"watchlists","error":null},"eventName":"step_completed","flowId":"606b42edf4e11f001b2ce859","timestamp":"2021-04-21T18:59:28.402Z"}
{"resource":"https://api.getmati.com/v2/verifications/6080758e352b9b001bbbfefa","step":{"status":200,"id":"costa-rican-tse-validation","error":null,"data":{"documentNumber":"304880023","firstName":"MARIANA","lastName":"LEANDRO ","secondSurname":"ALVAREZ","deceased":false,"dateOfBirth":"1995-06-21","nationality":"COSTARRICENSE"}},"eventName":"step_completed","flowId":"606b42edf4e11f001b2ce859","timestamp":"2021-04-21T18:59:29.726Z"}
{"resource":"https://api.getmati.com/v2/verifications/6080758e352b9b001bbbfefa","step":{"status":200,"id":"document-reading","data":{"fullName":{"required":true,"label":"Name","value":"MARIANA LEANDRO ALVAREZ "},"documentNumber":{"required":true,"label":"Document Number","value":"304880023"},"dateOfBirth":{"required":true,"label":"Day of Birth","format":"date","value":"1995-06-21"},"expirationDate":{"label":"Date of Expiration","format":"date","value":"2023-06-06"}},"error":null},"eventName":"step_completed","flowId":"606b42edf4e11f001b2ce859","timestamp":"2021-04-21T18:59:30.014Z"}
{"resource":"https://api.getmati.com/v2/verifications/6080758e352b9b001bbbfefa","step":{"status":200,"id":"liveness","data":{"videoUrl":"http://media-server/media/video/87035cf9-55ed-454d-b385-27b56fde575a.webm","spriteUrl":"http://media-server/media/selfie/968de83f-0752-4744-a839-f293aef30d70.jpeg","selfieUrl":{"media":"6080763e2481c4001b643cbb","isUrl":true}},"error":null},"eventName":"step_completed","flowId":"606b42edf4e11f001b2ce859","timestamp":"2021-04-21T19:00:14.238Z"}
{"resource":"https://api.getmati.com/v2/verifications/6080758e352b9b001bbbfefa","eventName":"verification_inputs_completed","flowId":"606b42edf4e11f001b2ce859","timestamp":"2021-04-21T19:00:14.284Z"}
{"resource":"https://api.getmati.com/v2/verifications/6080758e352b9b001bbbfefa","deviceFingerprint":{"ua":"Mozilla/5.0 (Linux; Android 9; ANE-LX3) AppleWebKit/537.36 (KHTML, like Gecko) Chrome/87.0.4280.66 Mobile Safari/537.36","browser":{"name":"Chrome","version":"87.0.4280.66","major":"87"},"engine":{"name":"Blink","version":"87.0.4280.66"},"os":{"name":"Android","version":"9"},"device":{"type":"mobile"},"ip":"200.91.93.13","app":{"platform":"web_mobile","version":"1.2.2"}},"identityStatus":"verified","details":{"age":{"data":25},"isDocumentExpired":{"data":{"national-id":false}}},"matiDashboardUrl":"https://dashboard.getmati.com/identities/6080758e352b9b001bbbfef8","status":"verified","eventName":"verification_completed","flowId":"606b42edf4e11f001b2ce859","timestamp":"2021-04-21T19:00:15.667Z"}
{"resource":"https://api.getmati.com/v2/verifications/6080758e352b9b001bbbfefa","step":{"status":200,"id":"alteration-detection","error":null},"eventName":"step_completed","flowId":"606b42edf4e11f001b2ce859","timestamp":"2021-04-21T19:00:16.544Z"}
{"resource":"https://api.getmati.com/v2/verifications/6080758e352b9b001bbbfefa","step":{"status":200,"id":"facematch","data":{"score":100},"error":null},"eventName":"step_completed","flowId":"606b42edf4e11f001b2ce859","timestamp":"2021-04-21T19:00:22.359Z"}
{"resource":"https://api.getmati.com/v2/verifications/60809164000157001b493ad4","eventName":"verification_started","flowId":"606b42edf4e11f001b2ce859","timestamp":"2021-04-21T20:56:04.929Z"}


{"metadata":{"email":"mariano@gmail.com"},"resource":"https://api.getmati.com/v2/verifications/60809478352b9b001bbdb2ff","eventName":"verification_started","flowId":"606b42edf4e11f001b2ce859","timestamp":"2021-04-21T21:09:12.958Z"}


{"metadata":{"email":"mariano@gmail.com"},"resource":"https://api.getmati.com/v2/verifications/608094b44a9806001b40c0b8","eventName":"verification_started","flowId":"606b42edf4e11f001b2ce859","timestamp":"2021-04-21T21:10:12.532Z"}
{"resource":"https://api.getmati.com/v2/verifications/60809164000157001b493ad4","eventName":"verification_expired","flowId":"606b42edf4e11f001b2ce859","timestamp":"2021-04-21T21:27:00.272Z"}
{"metadata":{"email":"mariano@gmail.com"},"resource":"https://api.getmati.com/v2/verifications/608099ef352b9b001bbdf7f5","eventName":"verification_started","flowId":"606b42edf4e11f001b2ce859","timestamp":"2021-04-21T21:32:31.197Z"}
{"metadata":{"email":"mariano@gmail.com"},"resource":"https://api.getmati.com/v2/verifications/60809478352b9b001bbdb2ff","eventName":"verification_expired","flowId":"606b42edf4e11f001b2ce859","timestamp":"2021-04-21T21:40:00.331Z"}
{"metadata":{"email":"mariano@gmail.com"},"resource":"https://api.getmati.com/v2/verifications/608094b44a9806001b40c0b8","eventName":"verification_expired","flowId":"606b42edf4e11f001b2ce859","timestamp":"2021-04-21T21:41:00.718Z"}
{"metadata":{"email":"mariano@gmail.com"},"resource":"https://api.getmati.com/v2/verifications/608099ef352b9b001bbdf7f5","eventName":"verification_expired","flowId":"606b42edf4e11f001b2ce859","timestamp":"2021-04-21T22:03:00.430Z"}


{"resource":"https://api.getmati.com/v2/verifications/608040f9352b9b001bb8fb47","deviceFingerprint":{"ua":"Mozilla/5.0 (iPhone; CPU iPhone OS 14_4_2 like Mac OS X) AppleWebKit/605.1.15 (KHTML, like Gecko) Version/14.0.3 Mobile/15E148 Safari/604.1","browser":{"name":"Mobile Safari","version":"14.0.3","major":"14"},"engine":{"name":"WebKit","version":"605.1.15"},"os":{"name":"iOS","version":"14.4.2"},"device":{"vendor":"Apple","model":"iPhone","type":"mobile"},"ip":"177.247.106.33","app":{"platform":"web_mobile","version":"1.2.2"}},"identityStatus":"rejected","details":{"age":{"data":30},"isDocumentExpired":{"data":{"national-id":false}}},"matiDashboardUrl":"https://dashboard.getmati.com/identities/608040f9352b9b001bb8fb43","status":"reviewNeeded","eventName":"verification_updated","flowId":"606b42edf4e11f001b2ce859","timestamp":"2021-04-21T22:10:14.836Z"}

{"metadata":{"email":"mariano@gmail.com"},"resource":"https://api.getmati.com/v2/verifications/607fb1f50b696f001c65a19e","deviceFingerprint":{"ua":"omni/1 CFNetwork/1220.1 Darwin/20.3.0","os":{"name":"iOS"},"ip":"177.247.106.33","app":{"platform":"iOS","version":"3.0.3"}},"identityStatus":"rejected","details":{"age":{"data":30},"isDocumentExpired":{"data":{"national-id":false}}},"matiDashboardUrl":"https://dashboard.getmati.com/identities/607fb1f50b696f001c65a19c","status":"reviewNeeded","eventName":"verification_updated","flowId":"606b42edf4e11f001b2ce859","timestamp":"2021-04-21T22:11:35.467Z"}
{"resource":"https://api.getmati.com/v2/verifications/608040f9352b9b001bb8fb47","deviceFingerprint":{"ua":"Mozilla/5.0 (iPhone; CPU iPhone OS 14_4_2 like Mac OS X) AppleWebKit/605.1.15 (KHTML, like Gecko) Version/14.0.3 Mobile/15E148 Safari/604.1","browser":{"name":"Mobile Safari","version":"14.0.3","major":"14"},"engine":{"name":"WebKit","version":"605.1.15"},"os":{"name":"iOS","version":"14.4.2"},"device":{"vendor":"Apple","model":"iPhone","type":"mobile"},"ip":"177.247.106.33","app":{"platform":"web_mobile","version":"1.2.2"}},"identityStatus":"reviewNeeded","details":{"age":{"data":30},"isDocumentExpired":{"data":{"national-id":false}}},"matiDashboardUrl":"https://dashboard.getmati.com/identities/608040f9352b9b001bb8fb43","status":"reviewNeeded","eventName":"verification_updated","flowId":"606b42edf4e11f001b2ce859","timestamp":"2021-04-21T22:22:36.536Z"}


{"metadata":{"email":"mariano@gmail.com"},"resource":"https://api.getmati.com/v2/verifications/6080a798352b9b001bbe991b","eventName":"verification_started","flowId":"606b42edf4e11f001b2ce859","timestamp":"2021-04-21T22:30:48.433Z"}
{"metadata":{"email":"mariano@gmail.com"},"resource":"https://api.getmati.com/v2/verifications/6080a798352b9b001bbe991b","step":{"status":200,"id":"template-matching","error":{"type":"StepError","code":"templateMatching.noMatchFound","message":"Document did not match any valid template"}},"eventName":"step_completed","flowId":"606b42edf4e11f001b2ce859","timestamp":"2021-04-21T22:36:57.740Z"}
{"metadata":{"email":"mariano@gmail.com"},"resource":"https://api.getmati.com/v2/verifications/6080a798352b9b001bbe991b","step":{"status":200,"id":"document-reading","data":{"fullName":{"value":"MARIANO ALB MARTINEZ APOLINAR","required":true,"label":"Name"},"documentNumber":{"value":"187908509","required":true,"label":"Document Number"},"dateOfBirth":{"value":"1989-05-18","required":true,"label":"Day of Birth","format":"date"},"expirationDate":{"value":"2029-12-31","required":false,"label":"Date of Expiration","format":"date"},"documentType":{"value":"ID","required":false,"label":"Document Type"},"firstName":{"value":"MARIANO ALB","required":false,"label":"First Name"},"issueCountry":{"value":"MEX","required":false,"label":"Issue Country"},"nationality":{"value":"MEX","required":false,"label":"Nationality"},"optional1":{"value":"5363081860125","required":false,"label":"Optional 1"},"optional2":{"value":"01 109328","required":false,"label":"Optional 2"},"sex":{"value":"M","required":false,"label":"Sex"},"surname":{"value":"MARTINEZ APOLINAR","required":false,"label":"Surname"}},"error":null},"eventName":"step_completed","flowId":"606b42edf4e11f001b2ce859","timestamp":"2021-04-21T22:37:04.321Z"}
{"metadata":{"email":"mariano@gmail.com"},"resource":"https://api.getmati.com/v2/verifications/6080a798352b9b001bbe991b","step":{"status":200,"id":"age-check","data":{"age":31,"ageThreshold":18,"underage":false},"error":null},"eventName":"step_completed","flowId":"606b42edf4e11f001b2ce859","timestamp":"2021-04-21T22:37:04.556Z"}
{"metadata":{"email":"mariano@gmail.com"},"resource":"https://api.getmati.com/v2/verifications/6080a798352b9b001bbe991b","step":{"status":200,"id":"watchlists","error":null},"eventName":"step_completed","flowId":"606b42edf4e11f001b2ce859","timestamp":"2021-04-21T22:37:04.558Z"}
{"metadata":{"email":"mariano@gmail.com"},"resource":"https://api.getmati.com/v2/verifications/6080a798352b9b001bbe991b","step":{"status":200,"id":"costa-rican-tse-validation","error":{"type":"StepError","code":"costaRicanTse.notFound","message":"No results were found in the TSE database"}},"eventName":"step_completed","flowId":"606b42edf4e11f001b2ce859","timestamp":"2021-04-21T22:37:05.500Z"}
{"metadata":{"email":"mariano@gmail.com"},"resource":"https://api.getmati.com/v2/verifications/6080a798352b9b001bbe991b","step":{"status":200,"id":"alteration-detection","error":null},"eventName":"step_completed","flowId":"606b42edf4e11f001b2ce859","timestamp":"2021-04-21T22:37:33.396Z"}


{"metadata":{"email":"mariano@gmail.com"},"resource":"https://api.getmati.com/v2/verifications/6080a977352b9b001bbeb1e1","eventName":"verification_started","flowId":"606b42edf4e11f001b2ce859","timestamp":"2021-04-21T22:38:47.189Z"}
{"metadata":{"email":"mariano@gmail.com"},"resource":"https://api.getmati.com/v2/verifications/6080a977352b9b001bbeb1e1","step":{"status":200,"id":"document-reading","data":{"fullName":{"value":"MARIANO ALBERTO MARTINEZ APOLINAR","required":true,"label":"Name"},"address":{"value":"FRACC LAS MISIONES 50230 TOLUCA, MEX","required":false,"label":"Address"},"emissionDate":{"value":"2019-12-31","required":false,"label":"Emission Date","format":"date"},"documentNumber":{"value":"187908509","required":true,"label":"Document Number"},"dateOfBirth":{"value":"1989-05-18","required":true,"label":"Day of Birth","format":"date"},"expirationDate":{"value":"2029-12-31","required":false,"label":"Date of Expiration","format":"date"},"documentType":{"value":"ID","required":false,"label":"Document Type"},"firstName":{"value":"MARIANO ALBERTO","required":false,"label":"First Name"},"issueCountry":{"value":"MEX","required":false,"label":"Issue Country"},"nationality":{"value":"MEX","required":false,"label":"Nationality"},"optional2":{"value":"01 10932","required":false,"label":"Optional 2"},"sex":{"value":"M","required":false,"label":"Sex"},"surname":{"value":"MARTINEZ APOLINAR","required":false,"label":"Surname"},"cde":{"value":"MRAPMR89051815H600","required":false,"label":"Elector Key"},"curp":{"value":"MAAM890518HMCRPR08","required":false,"label":"CURP"},"ne":{"value":"01","required":false,"label":"Emission Number"},"ocrNumber":{"value":"5363081860125","required":false,"label":"OCR Number"}},"error":null},"eventName":"step_completed","flowId":"606b42edf4e11f001b2ce859","timestamp":"2021-04-21T22:39:53.434Z"}
{"metadata":{"email":"mariano@gmail.com"},"resource":"https://api.getmati.com/v2/verifications/6080a977352b9b001bbeb1e1","step":{"status":200,"id":"age-check","data":{"age":31,"ageThreshold":18,"underage":false},"error":null},"eventName":"step_completed","flowId":"606b42edf4e11f001b2ce859","timestamp":"2021-04-21T22:39:53.757Z"}
{"metadata":{"email":"mariano@gmail.com"},"resource":"https://api.getmati.com/v2/verifications/6080a977352b9b001bbeb1e1","step":{"status":200,"id":"watchlists","error":null},"eventName":"step_completed","flowId":"606b42edf4e11f001b2ce859","timestamp":"2021-04-21T22:39:53.775Z"}
{"metadata":{"email":"mariano@gmail.com"},"resource":"https://api.getmati.com/v2/verifications/6080a977352b9b001bbeb1e1","step":{"status":200,"id":"template-matching","error":null},"eventName":"step_completed","flowId":"606b42edf4e11f001b2ce859","timestamp":"2021-04-21T22:39:54.122Z"}
{"metadata":{"email":"mariano@gmail.com"},"resource":"https://api.getmati.com/v2/verifications/6080a977352b9b001bbeb1e1","step":{"status":200,"id":"mexican-curp-validation","error":null,"data":{"birthDate":"1989-05-18","curp":"MAAM890518HMCRPR08","fullName":"MARTINEZ APOLINAR MARIANO ALBERTO","gender":"HOMBRE","name":"MARIANO ALBERTO","nationality":"MEXICO","surname":"MARTINEZ","secondSurname":"APOLINAR"}},"eventName":"step_completed","flowId":"606b42edf4e11f001b2ce859","timestamp":"2021-04-21T22:39:55.164Z"}
{"metadata":{"email":"mariano@gmail.com"},"resource":"https://api.getmati.com/v2/verifications/6080a977352b9b001bbeb1e1","step":{"status":200,"id":"mexican-ine-validation","error":null,"data":{"documentNumber":"187908509","cde":"MRAPMR89051815H600","ne":"1","ocrNumber":"5363081860125","registrationYear":"2008","emissionYear":"2019"}},"eventName":"step_completed","flowId":"606b42edf4e11f001b2ce859","timestamp":"2021-04-21T22:39:58.823Z"}
{"metadata":{"email":"mariano@gmail.com"},"resource":"https://api.getmati.com/v2/verifications/6080a977352b9b001bbeb1e1","step":{"status":200,"id":"mexican-rfc-validation","error":null,"data":{"curp":"MAAM890518HMCRPR08","registeredTaxPayer":true}},"eventName":"step_completed","flowId":"606b42edf4e11f001b2ce859","timestamp":"2021-04-21T22:40:00.336Z"}
{"metadata":{"email":"mariano@gmail.com"},"resource":"https://api.getmati.com/v2/verifications/6080a977352b9b001bbeb1e1","step":{"status":200,"id":"alteration-detection","error":null},"eventName":"step_completed","flowId":"606b42edf4e11f001b2ce859","timestamp":"2021-04-21T22:40:10.235Z"}
{"metadata":{"email":"mariano@gmail.com"},"resource":"https://api.getmati.com/v2/verifications/6080a977352b9b001bbeb1e1","eventName":"verification_inputs_completed","flowId":"606b42edf4e11f001b2ce859","timestamp":"2021-04-21T22:41:03.317Z"}
{"metadata":{"email":"mariano@gmail.com"},"resource":"https://api.getmati.com/v2/verifications/6080a977352b9b001bbeb1e1","step":{"status":200,"id":"template-matching","error":null},"eventName":"step_completed","flowId":"606b42edf4e11f001b2ce859","timestamp":"2021-04-21T22:41:16.568Z"}
{"metadata":{"email":"mariano@gmail.com"},"resource":"https://api.getmati.com/v2/verifications/6080a977352b9b001bbeb1e1","step":{"status":200,"id":"age-check","data":{"age":31,"ageThreshold":18,"underage":false},"error":null},"eventName":"step_completed","flowId":"606b42edf4e11f001b2ce859","timestamp":"2021-04-21T22:42:12.598Z"}
{"metadata":{"email":"mariano@gmail.com"},"resource":"https://api.getmati.com/v2/verifications/6080a977352b9b001bbeb1e1","step":{"status":200,"id":"watchlists","error":null},"eventName":"step_completed","flowId":"606b42edf4e11f001b2ce859","timestamp":"2021-04-21T22:42:12.751Z"}
{"metadata":{"email":"mariano@gmail.com"},"resource":"https://api.getmati.com/v2/verifications/6080a977352b9b001bbeb1e1","step":{"status":200,"id":"document-reading","data":{"fullName":{"required":true,"label":"Name","value":"MARIANO ALBERTO MARTINEZ APOLINAR"},"documentNumber":{"required":true,"label":"Document Number","value":"480000154056"},"dateOfBirth":{"required":true,"label":"Day of Birth","format":"date","value":"1989-05-18"},"expirationDate":{"label":"Date of Expiration","format":"date","value":"2023-06-29"}},"error":null},"eventName":"step_completed","flowId":"606b42edf4e11f001b2ce859","timestamp":"2021-04-21T22:42:16.145Z"}
{"metadata":{"email":"mariano@gmail.com"},"resource":"https://api.getmati.com/v2/verifications/6080a977352b9b001bbeb1e1","step":{"status":200,"id":"alteration-detection","error":null},"eventName":"step_completed","flowId":"606b42edf4e11f001b2ce859","timestamp":"2021-04-21T22:42:57.773Z"}
{"metadata":{"email":"mariano@gmail.com"},"resource":"https://api.getmati.com/v2/verifications/6080a977352b9b001bbeb1e1","deviceFingerprint":{"ua":"omni/1 CFNetwork/1220.1 Darwin/20.3.0","os":{"name":"iOS"},"ip":"177.247.106.33","app":{"platform":"iOS","version":"3.0.3"}},"identityStatus":"verified","details":{"age":{"data":31},"isDocumentExpired":{"data":{"national-id":false,"driving-license":false}}},"matiDashboardUrl":"https://dashboard.getmati.com/identities/6080a977352b9b001bbeb1df","status":"verified","eventName":"verification_completed","flowId":"606b42edf4e11f001b2ce859","timestamp":"2021-04-21T22:42:57.825Z"}


{"metadata":{"email":"mariano@gmail.com"},"resource":"https://api.getmati.com/v2/verifications/6080accd000157001b4a8196","eventName":"verification_started","flowId":"606b42edf4e11f001b2ce859","timestamp":"2021-04-21T22:53:01.123Z"}
{"metadata":{"email":"mariano@gmail.com"},"resource":"https://api.getmati.com/v2/verifications/6080accd000157001b4a8196","step":{"status":200,"id":"template-matching","error":null},"eventName":"step_completed","flowId":"606b42edf4e11f001b2ce859","timestamp":"2021-04-21T22:53:45.363Z"}
{"metadata":{"email":"mariano@gmail.com"},"resource":"https://api.getmati.com/v2/verifications/6080accd000157001b4a8196","step":{"status":200,"id":"document-reading","data":{"fullName":{"value":"MARIANO ALBERTO MARTINEZ APOLINAR","required":true,"label":"Name"},"address":{"value":"FRACC LAS MISIONES 50230 TOLUCA, MEX.","required":false,"label":"Address"},"emissionDate":{"value":"2019-12-31","required":false,"label":"Emission Date","format":"date"},"documentNumber":{"value":"187908509","required":true,"label":"Document Number"},"dateOfBirth":{"value":"1989-05-18","required":true,"label":"Day of Birth","format":"date"},"expirationDate":{"value":"2029-12-31","required":false,"label":"Date of Expiration","format":"date"},"documentType":{"value":"ID","required":false,"label":"Document Type"},"firstName":{"value":"MARIANO ALBERTO","required":false,"label":"First Name"},"issueCountry":{"value":"MEX","required":false,"label":"Issue Country"},"nationality":{"value":"MEX","required":false,"label":"Nationality"},"optional2":{"value":"01 10932","required":false,"label":"Optional 2"},"sex":{"value":"M","required":false,"label":"Sex"},"surname":{"value":"MARTINEZ APOLINAR","required":false,"label":"Surname"},"cde":{"value":"MRAPMR89051815H600","required":false,"label":"Elector Key"},"curp":{"value":"MAAM890518HMCRPR08","required":false,"label":"CURP"},"ne":{"value":"01","required":false,"label":"Emission Number"},"ocrNumber":{"value":"5363081860125","required":false,"label":"OCR Number"}},"error":null},"eventName":"step_completed","flowId":"606b42edf4e11f001b2ce859","timestamp":"2021-04-21T22:53:45.548Z"}
{"metadata":{"email":"mariano@gmail.com"},"resource":"https://api.getmati.com/v2/verifications/6080accd000157001b4a8196","step":{"status":200,"id":"watchlists","error":null},"eventName":"step_completed","flowId":"606b42edf4e11f001b2ce859","timestamp":"2021-04-21T22:53:45.809Z"}
{"metadata":{"email":"mariano@gmail.com"},"resource":"https://api.getmati.com/v2/verifications/6080accd000157001b4a8196","step":{"status":200,"id":"age-check","data":{"age":31,"ageThreshold":18,"underage":false},"error":null},"eventName":"step_completed","flowId":"606b42edf4e11f001b2ce859","timestamp":"2021-04-21T22:53:45.720Z"}
{"metadata":{"email":"mariano@gmail.com"},"resource":"https://api.getmati.com/v2/verifications/6080accd000157001b4a8196","step":{"status":200,"id":"mexican-ine-validation","error":null,"data":{"documentNumber":"187908509","cde":"MRAPMR89051815H600","ne":"1","ocrNumber":"5363081860125","registrationYear":"2008","emissionYear":"2019"}},"eventName":"step_completed","flowId":"606b42edf4e11f001b2ce859","timestamp":"2021-04-21T22:53:46.024Z"}
{"metadata":{"email":"mariano@gmail.com"},"resource":"https://api.getmati.com/v2/verifications/6080accd000157001b4a8196","step":{"status":200,"id":"mexican-curp-validation","error":null,"data":{"birthDate":"1989-05-18","curp":"MAAM890518HMCRPR08","fullName":"MARTINEZ APOLINAR MARIANO ALBERTO","gender":"HOMBRE","name":"MARIANO ALBERTO","nationality":"MEXICO","surname":"MARTINEZ","secondSurname":"APOLINAR"}},"eventName":"step_completed","flowId":"606b42edf4e11f001b2ce859","timestamp":"2021-04-21T22:53:47.057Z"}
{"metadata":{"email":"mariano@gmail.com"},"resource":"https://api.getmati.com/v2/verifications/6080accd000157001b4a8196","step":{"status":200,"id":"mexican-rfc-validation","error":null,"data":{"curp":"MAAM890518HMCRPR08","registeredTaxPayer":true}},"eventName":"step_completed","flowId":"606b42edf4e11f001b2ce859","timestamp":"2021-04-21T22:53:54.565Z"}
{"metadata":{"email":"mariano@gmail.com"},"resource":"https://api.getmati.com/v2/verifications/6080accd000157001b4a8196","eventName":"verification_inputs_completed","flowId":"606b42edf4e11f001b2ce859","timestamp":"2021-04-21T22:54:19.129Z"}
{"metadata":{"email":"mariano@gmail.com"},"resource":"https://api.getmati.com/v2/verifications/6080accd000157001b4a8196","step":{"status":200,"id":"alteration-detection","error":null},"eventName":"step_completed","flowId":"606b42edf4e11f001b2ce859","timestamp":"2021-04-21T22:54:37.692Z"}
{"metadata":{"email":"mariano@gmail.com"},"resource":"https://api.getmati.com/v2/verifications/6080accd000157001b4a8196","step":{"status":200,"id":"template-matching","error":null},"eventName":"step_completed","flowId":"606b42edf4e11f001b2ce859","timestamp":"2021-04-21T22:54:40.004Z"}
{"metadata":{"email":"mariano@gmail.com"},"resource":"https://api.getmati.com/v2/verifications/6080accd000157001b4a8196","step":{"status":200,"id":"document-reading","data":{"fullName":{"required":true,"label":"Name","value":"MARIANO ALBERTO MARTINEZ APOLINAR"},"documentNumber":{"required":true,"label":"Document Number","value":"480000154056"},"dateOfBirth":{"required":true,"label":"Day of Birth","format":"date","value":"1989-05-18"},"expirationDate":{"label":"Date of Expiration","format":"date","value":"2023-06-29"}},"error":null},"eventName":"step_completed","flowId":"606b42edf4e11f001b2ce859","timestamp":"2021-04-21T22:55:30.168Z"}
{"metadata":{"email":"mariano@gmail.com"},"resource":"https://api.getmati.com/v2/verifications/6080accd000157001b4a8196","step":{"status":200,"id":"age-check","data":{"age":31,"ageThreshold":18,"underage":false},"error":null},"eventName":"step_completed","flowId":"606b42edf4e11f001b2ce859","timestamp":"2021-04-21T22:55:30.306Z"}
{"metadata":{"email":"mariano@gmail.com"},"resource":"https://api.getmati.com/v2/verifications/6080accd000157001b4a8196","step":{"status":200,"id":"watchlists","error":null},"eventName":"step_completed","flowId":"606b42edf4e11f001b2ce859","timestamp":"2021-04-21T22:55:30.413Z"}
{"metadata":{"email":"mariano@gmail.com"},"resource":"https://api.getmati.com/v2/verifications/6080accd000157001b4a8196","deviceFingerprint":{"ua":"omni/1 CFNetwork/1220.1 Darwin/20.3.0","os":{"name":"iOS"},"ip":"177.247.106.33","app":{"platform":"iOS","version":"3.0.3"}},"identityStatus":"verified","details":{"age":{"data":31},"isDocumentExpired":{"data":{"national-id":false,"driving-license":false}}},"matiDashboardUrl":"https://dashboard.getmati.com/identities/6080accd000157001b4a8194","status":"verified","eventName":"verification_completed","flowId":"606b42edf4e11f001b2ce859","timestamp":"2021-04-21T22:56:04.818Z"}
{"metadata":{"email":"mariano@gmail.com"},"resource":"https://api.getmati.com/v2/verifications/6080accd000157001b4a8196","step":{"status":200,"id":"alteration-detection","error":null},"eventName":"step_completed","flowId":"606b42edf4e11f001b2ce859","timestamp":"2021-04-21T22:56:04.262Z"}


{"metadata":{"email":"mariano@gmail.com"},"resource":"https://api.getmati.com/v2/verifications/6080ae624a9806001b41ed7a","eventName":"verification_started","flowId":"606b42edf4e11f001b2ce859","timestamp":"2021-04-21T22:59:46.046Z"}
{"metadata":{"email":"mariano@gmail.com"},"resource":"https://api.getmati.com/v2/verifications/6080a798352b9b001bbe991b","eventName":"verification_expired","flowId":"606b42edf4e11f001b2ce859","timestamp":"2021-04-21T23:01:00.528Z"}


{"metadata":{"email":"mariano@gmail.com"},"resource":"https://api.getmati.com/v2/verifications/6080b1114a9806001b42057d","eventName":"verification_started","flowId":"606b42edf4e11f001b2ce859","timestamp":"2021-04-21T23:11:13.630Z"}
{"metadata":{"email":"mariano@gmail.com"},"resource":"https://api.getmati.com/v2/verifications/6080b1114a9806001b42057d","step":{"status":200,"id":"template-matching","error":null},"eventName":"step_completed","flowId":"606b42edf4e11f001b2ce859","timestamp":"2021-04-21T23:11:59.207Z"}
{"metadata":{"email":"mariano@gmail.com"},"resource":"https://api.getmati.com/v2/verifications/6080b1114a9806001b42057d","step":{"status":200,"id":"document-reading","data":{"fullName":{"value":"MARIANO ALBERTO MARTINEZ APOLINAR","required":true,"label":"Name"},"address":{"value":"WL FRACC LAS MISIONES 50230 TOLUCA, MEX.","required":false,"label":"Address"},"emissionDate":{"value":"2019-12-31","required":false,"label":"Emission Date","format":"date"},"documentNumber":{"value":"187908509","required":true,"label":"Document Number"},"dateOfBirth":{"value":"1989-05-18","required":true,"label":"Day of Birth","format":"date"},"expirationDate":{"value":"2029-12-31","required":false,"label":"Date of Expiration","format":"date"},"documentType":{"value":"ID","required":false,"label":"Document Type"},"firstName":{"value":"MARIANO ALBERTO","required":false,"label":"First Name"},"issueCountry":{"value":"MEX","required":false,"label":"Issue Country"},"nationality":{"value":"MEX","required":false,"label":"Nationality"},"optional2":{"value":"01 10932","required":false,"label":"Optional 2"},"sex":{"value":"M","required":false,"label":"Sex"},"surname":{"value":"MARTINEZ APOLINAR","required":false,"label":"Surname"},"cde":{"value":"MRAPMR89051815H600","required":false,"label":"Elector Key"},"curp":{"value":"MAAM890518HMCRPR08","required":false,"label":"CURP"},"ne":{"value":"01","required":false,"label":"Emission Number"},"ocrNumber":{"value":"5363081860125","required":false,"label":"OCR Number"}},"error":null},"eventName":"step_completed","flowId":"606b42edf4e11f001b2ce859","timestamp":"2021-04-21T23:11:59.298Z"}
{"metadata":{"email":"mariano@gmail.com"},"resource":"https://api.getmati.com/v2/verifications/6080b1114a9806001b42057d","step":{"status":200,"id":"age-check","data":{"age":31,"ageThreshold":18,"underage":false},"error":null},"eventName":"step_completed","flowId":"606b42edf4e11f001b2ce859","timestamp":"2021-04-21T23:11:59.486Z"}
{"metadata":{"email":"mariano@gmail.com"},"resource":"https://api.getmati.com/v2/verifications/6080b1114a9806001b42057d","step":{"status":200,"id":"watchlists","error":null},"eventName":"step_completed","flowId":"606b42edf4e11f001b2ce859","timestamp":"2021-04-21T23:11:59.558Z"}
{"metadata":{"email":"mariano@gmail.com"},"resource":"https://api.getmati.com/v2/verifications/6080b1114a9806001b42057d","step":{"status":200,"id":"mexican-curp-validation","error":null,"data":{"birthDate":"1989-05-18","curp":"MAAM890518HMCRPR08","fullName":"MARTINEZ APOLINAR MARIANO ALBERTO","gender":"HOMBRE","name":"MARIANO ALBERTO","nationality":"MEXICO","surname":"MARTINEZ","secondSurname":"APOLINAR"}},"eventName":"step_completed","flowId":"606b42edf4e11f001b2ce859","timestamp":"2021-04-21T23:12:00.719Z"}
{"metadata":{"email":"mariano@gmail.com"},"resource":"https://api.getmati.com/v2/verifications/6080b1114a9806001b42057d","step":{"status":200,"id":"mexican-ine-validation","error":null,"data":{"documentNumber":"187908509","cde":"MRAPMR89051815H600","ne":"1","ocrNumber":"5363081860125","registrationYear":"2008","emissionYear":"2019"}},"eventName":"step_completed","flowId":"606b42edf4e11f001b2ce859","timestamp":"2021-04-21T23:12:11.797Z"}
{"metadata":{"email":"mariano@gmail.com"},"resource":"https://api.getmati.com/v2/verifications/6080b1114a9806001b42057d","step":{"status":200,"id":"mexican-rfc-validation","error":null,"data":{"curp":"MAAM890518HMCRPR08","registeredTaxPayer":true}},"eventName":"step_completed","flowId":"606b42edf4e11f001b2ce859","timestamp":"2021-04-21T23:12:11.939Z"}
{"metadata":{"email":"mariano@gmail.com"},"resource":"https://api.getmati.com/v2/verifications/6080b1114a9806001b42057d","eventName":"verification_inputs_completed","flowId":"606b42edf4e11f001b2ce859","timestamp":"2021-04-21T23:12:41.467Z"}
{"metadata":{"email":"mariano@gmail.com"},"resource":"https://api.getmati.com/v2/verifications/6080b1114a9806001b42057d","step":{"status":200,"id":"alteration-detection","error":null},"eventName":"step_completed","flowId":"606b42edf4e11f001b2ce859","timestamp":"2021-04-21T23:12:55.919Z"}
{"metadata":{"email":"mariano@gmail.com"},"resource":"https://api.getmati.com/v2/verifications/6080b1114a9806001b42057d","step":{"status":200,"id":"template-matching","error":null},"eventName":"step_completed","flowId":"606b42edf4e11f001b2ce859","timestamp":"2021-04-21T23:13:14.798Z"}
{"metadata":{"email":"mariano@gmail.com"},"resource":"https://api.getmati.com/v2/verifications/6080b1114a9806001b42057d","step":{"status":200,"id":"document-reading","data":{"fullName":{"required":true,"label":"Name","value":"MARIANO ALBERTO MARTINEZ APOLINAR"},"documentNumber":{"required":true,"label":"Document Number","value":"480000154056"},"dateOfBirth":{"required":true,"label":"Day of Birth","format":"date","value":"1989-05-18"},"expirationDate":{"label":"Date of Expiration","format":"date","value":"2023-06-29"}},"error":null},"eventName":"step_completed","flowId":"606b42edf4e11f001b2ce859","timestamp":"2021-04-21T23:13:49.877Z"}
{"metadata":{"email":"mariano@gmail.com"},"resource":"https://api.getmati.com/v2/verifications/6080b1114a9806001b42057d","step":{"status":200,"id":"age-check","data":{"age":31,"ageThreshold":18,"underage":false},"error":null},"eventName":"step_completed","flowId":"606b42edf4e11f001b2ce859","timestamp":"2021-04-21T23:13:50.067Z"}
{"metadata":{"email":"mariano@gmail.com"},"resource":"https://api.getmati.com/v2/verifications/6080b1114a9806001b42057d","step":{"status":200,"id":"watchlists","error":null},"eventName":"step_completed","flowId":"606b42edf4e11f001b2ce859","timestamp":"2021-04-21T23:13:50.152Z"}
{"metadata":{"email":"mariano@gmail.com"},"resource":"https://api.getmati.com/v2/verifications/6080b1114a9806001b42057d","step":{"status":200,"id":"alteration-detection","error":null},"eventName":"step_completed","flowId":"606b42edf4e11f001b2ce859","timestamp":"2021-04-21T23:14:19.233Z"}
{"metadata":{"email":"mariano@gmail.com"},"resource":"https://api.getmati.com/v2/verifications/6080b1114a9806001b42057d","deviceFingerprint":{"ua":"omni/1 CFNetwork/1220.1 Darwin/20.3.0","os":{"name":"iOS"},"ip":"177.247.106.33","app":{"platform":"iOS","version":"3.0.3"}},"identityStatus":"verified","details":{"age":{"data":31},"isDocumentExpired":{"data":{"national-id":false,"driving-license":false}}},"matiDashboardUrl":"https://dashboard.getmati.com/identities/6080b1114a9806001b42057b","status":"verified","eventName":"verification_completed","flowId":"606b42edf4e11f001b2ce859","timestamp":"2021-04-21T23:14:19.328Z"}



{"metadata":{"email":"mariano@gmail.com"},"resource":"https://api.getmati.com/v2/verifications/6080ae624a9806001b41ed7a","eventName":"verification_expired","flowId":"606b42edf4e11f001b2ce859","timestamp":"2021-04-21T23:30:00.664Z"}
{"metadata":{"email":"mariano@gmail.com"},"resource":"https://api.getmati.com/v2/verifications/60739f2a84c023001be571a1","deviceFingerprint":{"ua":"omni/1 CFNetwork/1220.1 Darwin/20.3.0","os":{"name":"iOS"},"ip":"177.247.106.33","app":{"platform":"iOS","version":"3.0.3"}},"identityStatus":"reviewNeeded","details":{"age":{"data":31},"isDocumentExpired":{"data":{"national-id":false}}},"matiDashboardUrl":"https://dashboard.getmati.com/identities/60739f2a84c023001be5719f","status":"reviewNeeded","eventName":"verification_updated","flowId":"606b42edf4e11f001b2ce859","timestamp":"2021-04-22T00:19:31.138Z"}
{"metadata":{"email":"mariano@gmail.com"},"resource":"https://api.getmati.com/v2/verifications/60739f2a84c023001be571a1","deviceFingerprint":{"ua":"omni/1 CFNetwork/1220.1 Darwin/20.3.0","os":{"name":"iOS"},"ip":"177.247.106.33","app":{"platform":"iOS","version":"3.0.3"}},"identityStatus":"verified","details":{"age":{"data":31},"isDocumentExpired":{"data":{"national-id":false}}},"matiDashboardUrl":"https://dashboard.getmati.com/identities/60739f2a84c023001be5719f","status":"reviewNeeded","eventName":"verification_updated","flowId":"606b42edf4e11f001b2ce859","timestamp":"2021-04-22T00:23:25.143Z"}
{"metadata":{"email":"mariano@gmail.com"},"resource":"https://api.getmati.com/v2/verifications/60739f2a84c023001be571a1","deviceFingerprint":{"ua":"omni/1 CFNetwork/1220.1 Darwin/20.3.0","os":{"name":"iOS"},"ip":"177.247.106.33","app":{"platform":"iOS","version":"3.0.3"}},"identityStatus":"rejected","details":{"age":{"data":31},"isDocumentExpired":{"data":{"national-id":false}}},"matiDashboardUrl":"https://dashboard.getmati.com/identities/60739f2a84c023001be5719f","status":"reviewNeeded","eventName":"verification_updated","flowId":"606b42edf4e11f001b2ce859","timestamp":"2021-04-22T00:23:41.979Z"}
{"metadata":{"email":"mariano@gmail.com"},"resource":"https://api.getmati.com/v2/verifications/60739f2a84c023001be571a1","deviceFingerprint":{"ua":"omni/1 CFNetwork/1220.1 Darwin/20.3.0","os":{"name":"iOS"},"ip":"177.247.106.33","app":{"platform":"iOS","version":"3.0.3"}},"identityStatus":"reviewNeeded","details":{"age":{"data":31},"isDocumentExpired":{"data":{"national-id":false}}},"matiDashboardUrl":"https://dashboard.getmati.com/identities/60739f2a84c023001be5719f","status":"reviewNeeded","eventName":"verification_updated","flowId":"606b42edf4e11f001b2ce859","timestamp":"2021-04-22T01:33:19.227Z"}


{"resource":"https://api.getmati.com/v2/verifications/6080f1e3352b9b001bc109c3","eventName":"verification_started","flowId":"606b42edf4e11f001b2ce859","timestamp":"2021-04-22T03:47:47.229Z"}
{"resource":"https://api.getmati.com/v2/verifications/6080f1e3352b9b001bc109c3","eventName":"verification_expired","flowId":"606b42edf4e11f001b2ce859","timestamp":"2021-04-22T04:18:00.399Z"}
{"resource":"https://api.getmati.com/v2/verifications/60818b95d04015001bc0236d","eventName":"verification_expired","flowId":"606b42edf4e11f001b2ce859","timestamp":"2021-04-22T15:14:04.313Z"}
{"mydata":"hello22abr2021"}
{"mydata":"hello22abr2021fromInternet"}
{"mydata":"hello22abr2021fromInternet"}
{"mydata":"hello22abr2021"}